{
  "diagnostic.warningSign": "",
  "diagnostic.errorSign": "",
  "diagnostic.infoSign": "",
  "diagnostic.hintSign": "",
  "coc.preferences.formatOnSaveFiletypes": [
    "html",
    "javascript",
    "javascriptreact",
    "typescript",
    "typescriptreact",
    "typescript.tsx",
    "graphql",
    "python",
    "css",
    "markdown",
    "json",
    "rust",
    "haskell"
  ],
  "snippets.extends": {
    "javascriptreact": ["javascript"],
    "typescript": ["javascript"],
    "typescriptreact": ["javascript"]
  },
  "python.linting.pylintEnabled": true,
  "python.linting.enabled": true,
  "codeLens.enable": true,
  "languageserver": {
    "ccls": {
      "command": "ccls",
      "filetypes": ["c", "cpp", "objc", "objcpp"],
      "rootPatterns": [
        ".ccls",
        "compile_commands.json",
        ".vim/",
        ".git/",
        ".hg/"
      ],
      "initializationOptions": {
        "cache": {
          "directory": "/tmp/ccls"
        },
        "highlight": {
          "lsRanges": true
        }
      }
    },
    "haskell": {
      "command": "haskell-language-server-wrapper",
      "args": ["--lsp"],
      "rootPatterns": [
        "*.cabal",
        "stack.yaml",
        "cabal.project",
        "package.yaml",
        "hie.yaml"
      ],
      "filetypes": ["haskell", "lhaskell"],
      "initializationOptions": {
        "haskell": {
          "formattingProvider": "brittany"
        }
      }
    },
    "dhall": {
      "command": "dhall-lsp-server",
      "filetypes": ["dhall"]
    }
  },
  "xml.java.home": "/usr/lib/jvm/default",
  "diagnostic-languageserver.filetypes": {
    "sh": "shellcheck"
  },
  "sql.database": "postgresql"
}
